pva,0.9508826103,0.2824380566,0.2061722399,0.5200479546,0.7215298863,0.6203291052,0.3333712122,,,
imu,0.4458887392,0.0773401592,0.7129753753,0.6575300978,0.4937088527,0.1530986859,0.5823369616,0.3851146141,0.5734384144,0.4359204067
mag,0.074123742,0.0464696879,0.6162704733,0.5588340143,0.8693155465,0.1347327115,0.5819072962,0.9862529148,,
air,0.6335368716,0.3313768233,0.5850372307,0.2876629172,0.9666196718,,,,,
pva,0.3207457963,0.9477496461,0.3949433452,0.6818617255,0.6843789744,0.4765739185,0.8090964426,,,
pva,0.8155202437,0.5866159101,0.5550802475,0.8869416717,0.8699198073,0.8853714623,0.5578664634,,,
imu,0.4153501406,0.4482439093,0.7754060001,0.4588734147,0.6923517819,0.5226176137,0.5664357649,0.0177769234,0.1864767565,0.0080041482
imu,0.3791427048,0.4130597204,0.4494625565,0.9105007874,0.9109734836,0.5247228188,0.8133359629,0.9213636914,0.9118766372,0.9194525319
air,0.1235781672,0.6271498522,0.8463501603,0.3875734081,0.0908756077,,,,,
air,0.9221842542,0.2936306717,0.4317433357,0.00265416,0.4307534336,,,,,
mag,0.9994249301,0.8602144158,0.3546644676,0.9480625979,0.5580554297,0.4492677327,0.6690853836,0.1404535219,,
pva,0.8937149954,0.9041881206,0.3408354267,0.8649098501,0.411257501,0.1713789363,0.7864746874,,,
imu,0.6932197826,0.845993972,0.0605098253,0.0136822578,0.2028324466,0.576167502,0.8253326081,0.8281239909,0.8750974146,0.8982569339
imu,0.8256181614,0.9241036961,0.6521720807,0.5490806407,0.0737538219,0.038852028,0.8660030254,0.3080810022,0.3377636261,0.6444859372
mag,0.724592236,0.7839183086,0.583154511,0.7990252787,0.6255339486,0.9324868593,0.6211603196,0.9778707397,,
air,0.2735575029,0.8413270069,0.1492648793,0.2430459195,0.0737673553,,,,,
pva,0.3103314865,0.4874429234,0.46550099,0.1872762312,0.246020559,0.3359153814,0.6971418939,,,
mag,0.0290651665,0.9856664547,0.5094205043,0.0608190551,0.7201224061,0.9563317104,0.8350723425,0.3826505205,,
air,0.3882407429,0.3618663038,0.7451713994,0.3575795647,0.0272779506,,,,,
pva,0.8314167618,0.4127627915,0.2374910342,0.1470082871,0.8806161053,0.8610659524,0.692735299,,,
imu,0.142295904,0.0865236378,0.3570156817,0.1507370966,0.4270654901,0.7428134529,0.1078379907,0.2331422725,0.2325757724,0.133535578
mag,0.8931414743,0.094688857,0.0760206953,0.4826910076,0.3294430382,0.8018484764,0.6492330006,0.7548060654,,
pva,0.8154529245,0.0722406958,0.2550435265,0.1017304605,0.6037750889,0.4808452772,0.4831605135,,,
imu,0.3844754234,0.556577702,0.7370636886,0.8349016629,0.6065207899,0.1229050413,0.3286915594,0.636894397,0.7592339009,0.2858973012
mag,0.48534958,0.1149662331,0.9734819602,0.8292205813,0.1546257735,0.4636838013,0.6897296869,0.1826952228,,
air,0.5985573657,0.9932089625,0.444771443,0.8820088523,0.715757016,,,,,
pva,0.239564984,0.1502533068,0.9669703169,0.1911758928,0.1834246725,0.6961654934,0.72205507,,,
imu,0.2227014577,0.4422430011,0.8942416311,0.7461854416,0.8738864468,0.9914539531,0.7248321989,0.9113172729,0.4245443267,0.6281434412
mag,0.7810946353,0.399467347,0.8728810079,0.4857496206,0.7117153567,0.1490780736,0.1939497055,0.5801275397,,
pva,0.5408400767,0.6574982232,0.7574917996,0.6565233143,0.2157852401,0.1248539397,0.3284818954,,,
imu,0.5186603443,0.6637189009,0.0091773259,0.1867829355,0.1470820939,0.210283131,0.2125344056,0.6233991976,0.8225327895,0.2729653885
mag,0.5818722556,0.1173465372,0.6198729161,0.1741143674,0.7845878864,0.8606801855,0.7839565557,0.9160656806,,
air,0.9814131576,0.9264470683,0.7158347188,0.6812829594,0.1574268868,,,,,
pva,0.3608754813,0.4055158995,0.1232842756,0.5794745021,0.7672679437,0.8992312242,0.9286609273,,,
air,0.0982934037,0.386098131,0.1799250327,0.1064026217,0.7623239316,,,,,
imu,0.0775258248,0.6256995114,0.4760892874,0.3686371299,0.3799531647,0.4881345835,0.5874420648,0.3887930544,0.3090211376,0.2482699228
mag,0.4091633097,0.8610934845,0.6097347297,0.5081259998,0.1319984632,0.0327924804,0.6075318682,0.5594858273,,
air,0.4995133099,0.618330798,0.1538214298,0.7406366439,0.9713455423,,,,,
air,0.220596254,0.3415209051,0.0703323781,0.4555548121,0.4678279304,,,,,
mag,0.8662048103,0.0527249761,0.1946448868,0.3282086848,0.5466547149,0.5936009289,0.1163005271,0.3755333495,,
